{
  "code": 200,
  "message": "SUCCESS",
  "data": [
    {
      "id": 1,
      "permissionName": "VIEW_ADDED_SILOS"
    },
    {
      "id": 2,
      "permissionName": "INVITE_TEAM_MEMBER"
    },
    {
      "id": 3,
      "permissionName": "VIEW_SILOS_INFO"
    },
    {
      "id": 4,
      "permissionName": "ADD_SILOS"
    },
    {
      "id": 5,
      "permissionName": "VIEW_ALL_REQUEST"
    },
    {
      "id": 6,
      "permissionName": "CHANGE_REQUEST_STATUS"
    },
    {
      "id": 7,
      "permissionName": "APPROVE_REQUEST"
    },
    {
      "id": 8,
      "permissionName": "REJECT_REQUEST"
    },
    {
      "id": 9,
      "permissionName": "VIEW_DATA_SILOS"
    },
    {
      "id": 10,
      "permissionName": "EDIT_DATA_SILOS"
    }
  ]
}
