{
  "title": "Access Request",
  "h1": "Get your data",
  "meta": "read",
  "description": "<p>Here you can raise request to get all your data</p>",
  "requestHistory": {
    "requests": [
      {
        "id": 101,
        "requestDate": "2019-12-21",
        "status": "Pending",
        "completeDate": null
      },
      {
        "id": 105,
        "requestDate": "2019-10-15",
        "status": "Completed",
        "completeDate": "2019-10-18"
      }
    ]
  }
}
