{
    "requests": {
        "data": [{
            "requestId": "FSX-E2000 SF",
            "type": "Access",
            "raisedAt": "2019-12-21",
            "timeRemaining": "3 Days",
            "userIdentifier": "FWS-722539",
            "status": "Ongoing"
        },
        {
            "requestId": "124",
            "type": "Deletion",
            "RaisedAt": "2019-12-21",
            "timeRemaining": "5 Days",
            "userIdentifier": "FWS-722538",
            "status": "Completed"
        }
        ]
    }
}
