<svg xmlns="http://www.w3.org/2000/svg" xmlns:xlink="http://www.w3.org/1999/xlink" width="20" height="20" viewBox="0 0 20 20">
    <defs>
        <path id="a" d="M0 0h20v20H0z"/>
        <mask id="b" width="20" height="20" x="0" y="0" fill="#fff">
            <use xlink:href="#a"/>
        </mask>
        <path id="c" d="M8.333 5L7.158 6.175 10.975 10l-3.817 3.825L8.333 15l5-5z"/>
    </defs>
    <g fill="none" fill-rule="evenodd">
        <mask id="d" fill="#fff">
            <use xlink:href="#c"/>
        </mask>
        <use fill="#29394F" fill-rule="nonzero" xlink:href="#c"/>
        <g fill="#FFF" mask="url(#d)">
            <path d="M0 0h20v20H0z"/>
        </g>
    </g>
</svg>
