<svg xmlns="http://www.w3.org/2000/svg" xmlns:xlink="http://www.w3.org/1999/xlink" width="20" height="20" viewBox="0 0 20 20">
    <defs>
        <filter id="b" width="129.2%" height="129.2%" x="-14.6%" y="-14.6%" filterUnits="objectBoundingBox">
            <feOffset dy="5" in="SourceAlpha" result="shadowOffsetOuter1"/>
            <feGaussianBlur in="shadowOffsetOuter1" result="shadowBlurOuter1" stdDeviation="6.5"/>
            <feColorMatrix in="shadowBlurOuter1" result="shadowMatrixOuter1" values="0 0 0 0 0 0 0 0 0 0 0 0 0 0 0 0 0 0 0.139124774 0"/>
            <feMerge>
                <feMergeNode in="shadowMatrixOuter1"/>
                <feMergeNode in="SourceGraphic"/>
            </feMerge>
        </filter>
        <path id="a" d="M0 0h20v20H0z"/>
        <mask id="c" width="20" height="20" x="0" y="0" fill="#fff">
            <use xlink:href="#a"/>
        </mask>
        <path id="d" d="M16.667 1.667H3.333c-.916 0-1.658.75-1.658 1.666l-.008 15L5 15h11.667c.916 0 1.666-.75 1.666-1.667v-10c0-.916-.75-1.666-1.666-1.666zM5 7.5h10v1.667H5V7.5zm6.667 4.167H5V10h6.667v1.667zm3.333-5H5V5h10v1.667z"/>
    </defs>
    <g fill="none" fill-rule="evenodd" filter="url(#b)">
        <mask id="e" fill="#fff">
            <use xlink:href="#d"/>
        </mask>
        <use fill="#000" fill-rule="nonzero" xlink:href="#d"/>
        <g fill="#536E92" mask="url(#e)">
            <path d="M0 0h20v20H0z"/>
        </g>
    </g>
</svg>
