<svg xmlns="http://www.w3.org/2000/svg" xmlns:xlink="http://www.w3.org/1999/xlink" width="21" height="20" viewBox="0 0 21 20">
    <defs>
        <rect id="a" width="21" height="20" rx="2"/>
    </defs>
    <g fill="none" fill-rule="evenodd">
        <mask id="b" fill="#fff">
            <use xlink:href="#a"/>
        </mask>
        <use fill="#E8ECF6" fill-rule="nonzero" xlink:href="#a"/>
        <path stroke="#A9AFE7" stroke-linecap="round" stroke-linejoin="round" stroke-width="2" d="M.4 6.296H7.94l4.308 7-4.308 7H.401l-4.308-7 4.308-7zm3.77 9.693a2.692 2.692 0 1 0 0-5.385 2.692 2.692 0 0 0 0 5.385z" mask="url(#b)" transform="rotate(10 4.17 13.296)"/>
    </g>
</svg>
