<svg xmlns="http://www.w3.org/2000/svg" xmlns:xlink="http://www.w3.org/1999/xlink" width="21" height="20" viewBox="0 0 21 20">
    <defs>
        <rect id="a" width="21" height="20" rx="2"/>
    </defs>
    <g fill="none" fill-rule="evenodd">
        <mask id="b" fill="#fff">
            <use xlink:href="#a"/>
        </mask>
        <use fill="#6772E5" fill-rule="nonzero" xlink:href="#a"/>
        <rect width="14" height="14" x="-5" y="3" fill-rule="nonzero" stroke="#E8ECF6" stroke-width="2" mask="url(#b)" rx="1"/>
        <circle cx="9" cy="10" r="7" fill-rule="nonzero" stroke="#E8ECF6" stroke-width="2" mask="url(#b)"/>
    </g>
</svg>
