<svg xmlns="http://www.w3.org/2000/svg" width="20" height="20" viewBox="0 0 20 20" >
    <path stroke="#86a0c2" stroke-width="2" fill="#86a0c2" fill-rule="nonzero" d="M4.111 6.553a.75.75 0 0 0-.993 1.123l7.305 6.46 6.713-6.482a.75.75 0 0 0-1.042-1.079l-5.716 5.519-6.267-5.541z"/>
</svg>
