<svg xmlns="http://www.w3.org/2000/svg" xmlns:xlink="http://www.w3.org/1999/xlink" width="20" height="20" viewBox="0 0 20 20">
    <defs>
        <path id="a" d="M0 0h20v20H0z"/>
        <mask id="b" width="20" height="20" x="0" y="0" fill="#fff">
            <use xlink:href="#a"/>
        </mask>
        <path id="c" d="M12.292 9.967c.208.108.341.166.383.25.05.091.033.508-.175.983-.167.467-1.033.917-1.417.933-.383.017-.391.3-2.466-.608-2.075-.908-3.325-3.125-3.425-3.267-.1-.141-.8-1.15-.767-2.175.042-1.016.575-1.5.792-1.7.2-.216.425-.241.566-.216h.392c.125 0 .3-.05.458.375L7.208 6.1c.05.108.084.233.009.367l-.225.341-.325.35c-.1.1-.217.209-.1.417.1.217.516.908 1.1 1.483.758.734 1.425.975 1.625 1.084.2.116.325.1.45-.034l.675-.783c.158-.208.291-.158.483-.092l1.392.734zM8.333 0a8.333 8.333 0 1 1-4.458 15.375L0 16.667l1.292-3.875A8.333 8.333 0 0 1 8.334 0zm0 1.667a6.667 6.667 0 0 0-6.666 6.666c0 1.434.45 2.759 1.216 3.842l-.8 2.408 2.409-.8A6.625 6.625 0 0 0 8.333 15a6.667 6.667 0 1 0 0-13.333z"/>
    </defs>
    <g fill="none" fill-rule="evenodd" transform="translate(2.5 1.667)">
        <mask id="d" fill="#fff">
            <use xlink:href="#c"/>
        </mask>
        <use fill="#000" fill-rule="nonzero" xlink:href="#c"/>
        <g fill="#182233" mask="url(#d)">
            <path d="M-3-2h20v20H-3z"/>
        </g>
    </g>
</svg>
